{  
   "orders":[  
      {  
         "id":124,
         "external_order_identifier":"ABC-123",
         "ordered_at":"2015-01-26T16:39:38Z",
         "order_status":"ready_for_shipment",
         "parent_order_id":null,
         "source_order_ids":null,
         "total_including_tax":"0.00",
         "total_excluding_tax":"0.00",
         "discount_amount":"0.00",
         "coupon_discount":"0.00",
         "subtotal_including_tax":"0.00",
         "subtotal_excluding_tax":"0.00",
         "subtotal_tax":"0.00",
         "total_tax":"0.00",
         "base_shipping_cost":"0.00",
         "shipping_cost_including_tax":"0.00",
         "shipping_cost_excluding_tax":"0.00",
         "shipping_cost_tax":"0.00",
         "base_handling_cost":"0.00",
         "handling_cost_excluding_tax":"0.00",
         "handling_cost_including_tax":"0.00",
         "handling_cost_tax":"0.00",
         "base_wrapping_cost":"0.00",
         "wrapping_cost_excluding_tax":"0.00",
         "wrapping_cost_including_tax":"0.00",
         "wrapping_cost_tax":"0.00",
         "billing_company":null,
         "billing_first_name":null,
         "billing_last_name":null,
         "billing_address":null,
         "billing_address2":null,
         "billing_city":null,
         "billing_state":null,
         "billing_country":null,
         "billing_postal_code":null,
         "billing_phone_number":null,
         "billing_email":null,
         "recipients":[  
            {  
               "company":null,
               "first_name":"Colin",
               "last_name":"Smith",
               "address":"1600 Pennsylvania Ave",
               "address2":"Suite # 2",
               "address3":null,
               "city":null,
               "residential":null,
               "state":null,
               "province":null,
               "country":"United States",
               "postal_code":null,
               "postal_code_plus_4":null,
               "phone_number":null,
               "email":null,
               "base_cost":"0.00",
               "cost_excluding_tax":"0.00",
               "cost_including_tax":"0.00",
               "cost_tax":"0.00",
               "base_handling_cost":"0.00",
               "handling_cost_excluding_tax":"0.00",
               "handling_cost_including_tax":"0.00",
               "handling_cost_tax":"0.00",
               "shipping_zone_id":null,
               "shipping_zone_name":null,
               "items_total":0,
               "shipping_method":null,
               "items_shipped":0,
               "ext_shipping_detail_id":null,
               "line_items":[  
                  {  
                     "item_name":"Sprocket",
                     "sku":null,
                     "bin_picking_number":null,
                     "weight_in_ounces":"0.0",
                     "quantity":7,
                     "total_excluding_tax":"0.00",
                     "price_excluding_tax":"0.00",
                     "unit_price":"0.00",
                     "ext_line_item_id":null,
                     "ext_product_id":null,
                     "product_options":null,
                     "uuid":null,
                     "order_source_id":null
                  }
               ],
               "original_order":{  
                  "address_kind":"C",
                  "category_id":null,
                  "created_at":"2015-01-26T16:39:40Z",
                  "customer_id":1,
                  "destination_id":null,
                  "drop_ship_tracking_number":null,
                  "ext_shipment_confirmation_id":null,
                  "gift":false,
                  "id":124,
                  "internal_notes":null,
                  "is_international":false,
                  "line_item_name":"sprocket",
                  "line_item_sku":null,
                  "order_detail_id":124,
                  "prime_order_id":124,
                  "recipient_last_name":"smith",
                  "recipient_requested_service":null,
                  "shipment_id":null,
                  "split_from_order_id":null,
                  "store_id":5,
                  "store_order_status":"awaiting_shipment",
                  "total_quantity":7,
                  "total_weight_in_ounces":"0.0",
                  "updated_at":"2015-01-27T17:56:14Z",
                  "usps_shipping_zone":null,
                  "workflow_state":"ready_for_shipment"
               }
            }
         ],
         "store_api_key":"c71dc6da574eea04e2c926906bcb4eab",
         "shipments":[  

         ],
         "updated_at":"2015-01-27T17:56:14Z",
         "internal_notes":null,
         "prime_order_id":124,
         "split_from_order_id":null
      },
      {  
         "id":125,
         "external_order_identifier":"ABC-789",
         "ordered_at":"2015-01-26T20:43:40Z",
         "order_status":"ready_for_shipment",
         "parent_order_id":null,
         "source_order_ids":null,
         "total_including_tax":"0.00",
         "total_excluding_tax":"0.00",
         "discount_amount":"0.00",
         "coupon_discount":"0.00",
         "subtotal_including_tax":"0.00",
         "subtotal_excluding_tax":"0.00",
         "subtotal_tax":"0.00",
         "total_tax":"0.00",
         "base_shipping_cost":"0.00",
         "shipping_cost_including_tax":"0.00",
         "shipping_cost_excluding_tax":"0.00",
         "shipping_cost_tax":"0.00",
         "base_handling_cost":"0.00",
         "handling_cost_excluding_tax":"0.00",
         "handling_cost_including_tax":"0.00",
         "handling_cost_tax":"0.00",
         "base_wrapping_cost":"0.00",
         "wrapping_cost_excluding_tax":"0.00",
         "wrapping_cost_including_tax":"0.00",
         "wrapping_cost_tax":"0.00",
         "billing_company":null,
         "billing_first_name":null,
         "billing_last_name":null,
         "billing_address":null,
         "billing_address2":null,
         "billing_city":null,
         "billing_state":null,
         "billing_country":null,
         "billing_postal_code":null,
         "billing_phone_number":null,
         "billing_email":null,
         "recipients":[  
            {  
               "company":null,
               "first_name":"Colin",
               "last_name":"Smith",
               "address":"1600 Pennsylvania Ave",
               "address2":"Suite # 2",
               "address3":null,
               "city":null,
               "residential":null,
               "state":null,
               "province":null,
               "country":"United States",
               "postal_code":null,
               "postal_code_plus_4":null,
               "phone_number":null,
               "email":null,
               "base_cost":"0.00",
               "cost_excluding_tax":"0.00",
               "cost_including_tax":"0.00",
               "cost_tax":"0.00",
               "base_handling_cost":"0.00",
               "handling_cost_excluding_tax":"0.00",
               "handling_cost_including_tax":"0.00",
               "handling_cost_tax":"0.00",
               "shipping_zone_id":null,
               "shipping_zone_name":null,
               "items_total":0,
               "shipping_method":null,
               "items_shipped":0,
               "ext_shipping_detail_id":null,
               "line_items":[  
                  {  
                     "item_name":"Sprocket",
                     "sku":null,
                     "bin_picking_number":null,
                     "weight_in_ounces":"0.0",
                     "quantity":7,
                     "total_excluding_tax":"0.00",
                     "price_excluding_tax":"0.00",
                     "unit_price":"0.00",
                     "ext_line_item_id":null,
                     "ext_product_id":null,
                     "product_options":null,
                     "uuid":null,
                     "order_source_id":null
                  }
               ],
               "original_order":{  
                  "address_kind":"C",
                  "category_id":null,
                  "created_at":"2015-01-26T20:43:41Z",
                  "customer_id":1,
                  "destination_id":null,
                  "drop_ship_tracking_number":null,
                  "ext_shipment_confirmation_id":null,
                  "gift":false,
                  "id":125,
                  "internal_notes":null,
                  "is_international":false,
                  "line_item_name":"sprocket",
                  "line_item_sku":null,
                  "order_detail_id":125,
                  "prime_order_id":125,
                  "recipient_last_name":"smith",
                  "recipient_requested_service":null,
                  "shipment_id":null,
                  "split_from_order_id":null,
                  "store_id":5,
                  "store_order_status":"awaiting_shipment",
                  "total_quantity":7,
                  "total_weight_in_ounces":"0.0",
                  "updated_at":"2015-01-27T17:56:14Z",
                  "usps_shipping_zone":null,
                  "workflow_state":"ready_for_shipment"
               }
            }
         ],
         "store_api_key":"c71dc6da574eea04e2c926906bcb4eab",
         "shipments":[  

         ],
         "updated_at":"2015-01-27T17:56:14Z",
         "internal_notes":null,
         "prime_order_id":125,
         "split_from_order_id":null
      }
   ],
   "meta":{  
      "current_page":3,
      "next_page":4,
      "prev_page":2,
      "total_pages":5,
      "total_count":9,
      "last_updated_at":"2015-01-26T15:44:34-06:00",
      "status":[  
         "ready_for_shipment"
      ]
   }
}